…
### **q3** Process the `id` column of `df_pop` to create a `fips` column.

``` r
## TASK: Create a `fips` column by extracting the county code

df_q3 <- 
  df_pop %>%
  mutate(fips = str_extract(id, "\\d{5}$"))
 # pattern = "\\d{2}"
df_q3
```

    ## # A tibble: 3,220 × 5
    ##    id      `Geographic Area Name` `Estimate!!Total` Margin of Error!!Tot…¹ fips 
    ##    <chr>   <chr>                              <dbl>                  <dbl> <chr>
    ##  1 050000… Autauga County, Alaba…             55200                     NA 01001
    ##  2 050000… Baldwin County, Alaba…            208107                     NA 01003
    ##  3 050000… Barbour County, Alaba…             25782                     NA 01005
    ##  4 050000… Bibb County, Alabama               22527                     NA 01007
    ##  5 050000… Blount County, Alabama             57645                     NA 01009
    ##  6 050000… Bullock County, Alaba…             10352                     NA 01011
    ##  7 050000… Butler County, Alabama             20025                     NA 01013
    ##  8 050000… Calhoun County, Alaba…            115098                     NA 01015
    ##  9 050000… Chambers County, Alab…             33826                     NA 01017
    ## 10 050000… Cherokee County, Alab…             25853                     NA 01019
    ## # ℹ 3,210 more rows
    ## # ℹ abbreviated name: ¹​`Margin of Error!!Total`
…
### **q5** Use the `population` estimates in `df_data` to normalize `cases` and `deaths` to produce per 100,000 counts \[3\]. Store these values in the columns `cases_per100k` and `deaths_per100k`.

``` r
## TASK: Normalize cases and deaths
df_normalized <-
  df_data %>%
  filter(population > 0) %>%
  mutate(cases_per100k = (cases / population) * 100000,
         deaths_per100k = (deaths / population) * 100000
  ) 

df_normalized
```

    ## # A tibble: 2,474,010 × 9
    ##    date       county      state      fips  cases deaths population cases_per100k
    ##    <date>     <chr>       <chr>      <chr> <dbl>  <dbl>      <dbl>         <dbl>
    ##  1 2020-01-21 Snohomish   Washington 53061     1      0     786620       0.127  
    ##  2 2020-01-22 Snohomish   Washington 53061     1      0     786620       0.127  
    ##  3 2020-01-23 Snohomish   Washington 53061     1      0     786620       0.127  
    ##  4 2020-01-24 Cook        Illinois   17031     1      0    5223719       0.0191 
    ##  5 2020-01-24 Snohomish   Washington 53061     1      0     786620       0.127  
    ##  6 2020-01-25 Orange      California 06059     1      0    3164182       0.0316 
    ##  7 2020-01-25 Cook        Illinois   17031     1      0    5223719       0.0191 
    ##  8 2020-01-25 Snohomish   Washington 53061     1      0     786620       0.127  
    ##  9 2020-01-26 Maricopa    Arizona    04013     1      0    4253913       0.0235 
    ## 10 2020-01-26 Los Angeles California 06037     1      0   10098052       0.00990
    ## # ℹ 2,474,000 more rows
    ## # ℹ 1 more variable: deaths_per100k <dbl>
…
